CookerStat, GenerateAssetRegistry=0.043999, Initialize=0.165243, RunGuid=RunID4599BD7742520E6A90E599B7DAE1DD95
SavePackageTransactionId8416266D49CF701852C53F835C1B68CD_0, Filename=../../../../../../Users/kenny/Desktop/finialproject/Content/HUD.uasset, AutoPackageBackupDelegate=11.833068, FlushAsyncLoading=0.008311, FlushStreamingFunc=0.087023, BlockTillAllRequestsFinished=0.009775, ResetLoadersForSaveUnMarkAllObjects=0.161823, TagPackageExports=6.671377, BeginCacheForCookedPlatformData=0.002936, SerializeImports=7.285912, GatherLocalizableTextData=6.763779, MarkNames=0.051331, SerializeSummary=0.020534, SerializeNames=0.163779, SerializeGatherableTextData=0.189688, BuildExportMap=0.167202, SortExportsNonSeekfree=0.519197, SortExportsSeekfreeConstructor=0.073336, SortExportsSeekfreeInner=8.742802, SortExportsSeekfree=0.005864, BuildDependencyMap=0.079691, SerializeImportMap=0.020534, SerializeExportMap=0.049867, SerializeDependencyMap=0.047911, SerializeStringAssetReferenceMap=0.003912, SaveThumbNailsAssetRegistryDataWorldLevelInfo=0.947464, SerializeExports=13.032313, SerializeBulkData=0.020046, MoveFile=2.142310, UnaccountedTime=1.803022, RunGuid=RunID4599BD7742520E6A90E599B7DAE1DD95
SavePackageTransactionId8416266D49CF701852C53F835C1B68CD_1, Filename=../../../../../../Users/kenny/Desktop/finialproject/Content/Main.uasset, AutoPackageBackupDelegate=11.622847, FlushAsyncLoading=0.007823, FlushStreamingFunc=0.117332, BlockTillAllRequestsFinished=0.006847, ResetLoadersForSaveUnMarkAllObjects=0.114400, TagPackageExports=2.653200, BeginCacheForCookedPlatformData=0.002444, SerializeImports=3.559113, GatherLocalizableTextData=6.286133, MarkNames=0.048403, SerializeSummary=0.017598, SerializeNames=0.194579, SerializeGatherableTextData=0.154488, BuildExportMap=0.163779, SortExportsNonSeekfree=0.403821, SortExportsSeekfreeConstructor=0.012711, SortExportsSeekfreeInner=7.066402, SortExportsSeekfree=0.005864, BuildDependencyMap=0.071380, SerializeImportMap=0.019066, SerializeExportMap=0.108045, SerializeDependencyMap=0.014175, SerializeStringAssetReferenceMap=0.006359, SaveThumbNailsAssetRegistryDataWorldLevelInfo=1.235910, SerializeExports=11.433158, SerializeBulkData=0.009287, MoveFile=2.358399, UnaccountedTime=1.628980, RunGuid=RunID4599BD7742520E6A90E599B7DAE1DD95
SavePackageTransactionId8416266D49CF701852C53F835C1B68CD_2, Filename=../../../../../../Users/kenny/Desktop/finialproject/Content/ThirdPersonBP/Blueprints/ThirdPersonCharacter.uasset, AutoPackageBackupDelegate=15.258715, FlushAsyncLoading=0.009287, FlushStreamingFunc=0.079203, BlockTillAllRequestsFinished=0.005864, ResetLoadersForSaveUnMarkAllObjects=0.152536, TagPackageExports=24.046003, BeginCacheForCookedPlatformData=0.006843, SerializeImports=27.657427, GatherLocalizableTextData=18.616888, MarkNames=0.139825, SerializeSummary=0.020042, SerializeNames=0.497200, SerializeGatherableTextData=0.209734, BuildExportMap=0.376444, SortExportsNonSeekfree=3.554225, SortExportsSeekfreeConstructor=0.012711, SortExportsSeekfreeInner=42.222897, SortExportsSeekfree=0.011731, BuildDependencyMap=0.264980, SerializeImportMap=0.030313, SerializeExportMap=0.111464, SerializeDependencyMap=0.042532, SerializeStringAssetReferenceMap=0.004400, SaveThumbNailsAssetRegistryDataWorldLevelInfo=13.777383, SerializeExports=33.712311, SerializeBulkData=0.014178, MoveFile=2.153069, UnaccountedTime=1.664665, RunGuid=RunID4599BD7742520E6A90E599B7DAE1DD95
